module gitlab.com/gitlab-org/fleeting/fleeting-plugin-aws

go 1.19

require (
	github.com/aws/aws-sdk-go-v2 v1.17.3
	github.com/aws/aws-sdk-go-v2/config v1.18.8
	github.com/aws/aws-sdk-go-v2/service/autoscaling v1.26.0
	github.com/aws/aws-sdk-go-v2/service/ec2 v1.78.0
	github.com/aws/aws-sdk-go-v2/service/ec2instanceconnect v1.15.0
	github.com/hashicorp/go-hclog v1.4.0
	github.com/stretchr/testify v1.7.2
	gitlab.com/gitlab-org/fleeting/fleeting v0.0.0-20231017190230-c90ac7827438
	golang.org/x/crypto v0.13.0
)

require (
	github.com/Azure/go-ntlmssp v0.0.0-20211209120228-48547f28849e // indirect
	github.com/ChrisTrenkamp/goxpath v0.0.0-20210404020558-97928f7e12b6 // indirect
	github.com/aws/aws-sdk-go-v2/credentials v1.13.8 // indirect
	github.com/aws/aws-sdk-go-v2/feature/ec2/imds v1.12.21 // indirect
	github.com/aws/aws-sdk-go-v2/internal/configsources v1.1.27 // indirect
	github.com/aws/aws-sdk-go-v2/internal/endpoints/v2 v2.4.21 // indirect
	github.com/aws/aws-sdk-go-v2/internal/ini v1.3.28 // indirect
	github.com/aws/aws-sdk-go-v2/service/internal/presigned-url v1.9.21 // indirect
	github.com/aws/aws-sdk-go-v2/service/sso v1.12.0 // indirect
	github.com/aws/aws-sdk-go-v2/service/ssooidc v1.14.0 // indirect
	github.com/aws/aws-sdk-go-v2/service/sts v1.18.0 // indirect
	github.com/aws/smithy-go v1.13.5 // indirect
	github.com/davecgh/go-spew v1.1.1 // indirect
	github.com/fatih/color v1.14.1 // indirect
	github.com/gofrs/uuid v4.2.0+incompatible // indirect
	github.com/golang/protobuf v1.5.2 // indirect
	github.com/hashicorp/go-plugin v1.4.8 // indirect
	github.com/hashicorp/go-uuid v1.0.2 // indirect
	github.com/hashicorp/yamux v0.1.1 // indirect
	github.com/jcmturner/aescts/v2 v2.0.0 // indirect
	github.com/jcmturner/dnsutils/v2 v2.0.0 // indirect
	github.com/jcmturner/gofork v1.0.0 // indirect
	github.com/jcmturner/goidentity/v6 v6.0.1 // indirect
	github.com/jcmturner/gokrb5/v8 v8.4.2 // indirect
	github.com/jcmturner/rpc/v2 v2.0.3 // indirect
	github.com/jmespath/go-jmespath v0.4.0 // indirect
	github.com/masterzen/simplexml v0.0.0-20190410153822-31eea3082786 // indirect
	github.com/masterzen/winrm v0.0.0-20220917170901-b07f6cb0598d // indirect
	github.com/mattn/go-colorable v0.1.13 // indirect
	github.com/mattn/go-isatty v0.0.17 // indirect
	github.com/mitchellh/go-testing-interface v1.14.1 // indirect
	github.com/oklog/run v1.1.0 // indirect
	github.com/pmezard/go-difflib v1.0.0 // indirect
	golang.org/x/net v0.10.0 // indirect
	golang.org/x/sys v0.12.0 // indirect
	golang.org/x/text v0.13.0 // indirect
	google.golang.org/genproto v0.0.0-20230223222841-637eb2293923 // indirect
	google.golang.org/grpc v1.53.0 // indirect
	google.golang.org/protobuf v1.28.1 // indirect
	gopkg.in/yaml.v3 v3.0.1 // indirect
)
